11. Linear model extensions
…
snail <- read.csv(file = "snail_modified_for_class.csv") %>%
as_tibble() %>%
  mutate_at(vars(Treatment), factor) %>%
    mutate(treat = case_when(
    Treatment == "1" ~ "Control", 
    Treatment == "2" ~ "Single predator",
    Treatment == "3" ~ "Two predators"
  )
    ) %>%
    mutate_at(vars(treat), factor)

snail

## # A tibble: 234 × 4
##    Container Treatment    FL treat        
##        <int> <fct>     <dbl> <fct>        
##  1         1 3          22.5 Two predators
##  2         1 3          20.6 Two predators
##  3         1 3          23.1 Two predators
##  4         1 3          23.7 Two predators
##  5         1 3          24.4 Two predators
##  6         1 3          23.6 Two predators
##  7         1 3          20.1 Two predators
##  8         1 3          23   Two predators
##  9         1 3          23.4 Two predators
## 10         1 3          25.0 Two predators
## # … with 224 more rows
…
challenger <- read.csv(file = "challenger.csv") %>%
as_tibble() 
#%>%
#  mutate_at(vars(Treatment), factor) %>%
#    mutate(treat = case_when(
#    Treatment == "1" ~ "Control", 
#    Treatment == "2" ~ "Single predator",
#    Treatment == "3" ~ "Two predators"
#  )
#    ) %>%
#    mutate_at(vars(treat), factor)

challenger

## # A tibble: 23 × 2
##     Temp Damaged
##    <int>   <int>
##  1    53       2
##  2    57       1
##  3    58       1
##  4    63       1
##  5    66       0
##  6    67       0
##  7    67       0
##  8    67       0
##  9    68       0
## 10    69       0
## # … with 13 more rows
…
Try Binomial -> proportion of successes:failures <- number
damaged and not!

challenger2 <-
  challenger %>%
  mutate(
    No_damage = 6 - Damaged)

challenger2

## # A tibble: 23 × 3
##     Temp Damaged No_damage
##    <int>   <int>     <dbl>
##  1    53       2         4
##  2    57       1         5
##  3    58       1         5
##  4    63       1         5
##  5    66       0         6
##  6    67       0         6
##  7    67       0         6
##  8    67       0         6
##  9    68       0         6
## 10    69       0         6
## # … with 13 more rows
…
## Warning in mask$eval_all_mutate(quo): NAs introduced by coercion

## Warning in mask$eval_all_mutate(quo): NAs introduced by coercion

#    mutate(treat = case_when(
#    Treatment == "1" ~ "Control", 
#    Treatment == "2" ~ "Single predator",
#    Treatment == "3" ~ "Two predators"
#  )
#    ) %>%
#    mutate_at(vars(treat), factor)

whelk

## # A tibble: 473 × 4
##    Location  Mass Sex   Shell.Length
##    <fct>    <dbl> <fct>        <dbl>
##  1 sd       126.  F             NA  
##  2 sd       120.  M            106. 
##  3 sd        40.1 M             75.6
##  4 sd       141.  F            108. 
##  5 sd        49.7 M             76.2
##  6 sd        NA   M             70.1
##  7 sd        NA   F             80.1
##  8 sd        NA   M             66.4
##  9 sd        NA   F            106. 
## 10 sd        NA   F             93.1
## # … with 463 more rows
…
