…
```r
chol_tibble <-
  as_tibble(chol) %>%
  mutate_at(c('group', 'day'), as.factor) %>%
  mutate_at(c('patient'), as.character)
chol_tibble
```

```
## # A tibble: 114 × 4
##    patient group day   cholest
##    <chr>   <fct> <fct>   <int>
##  1 1       1     2         270
##  2 2       1     2         236
##  3 3       1     2         210
##  4 4       1     2         142
##  5 5       1     2         280
##  6 6       1     2         272
##  7 7       1     2         160
##  8 8       1     2         220
##  9 9       1     2         226
## 10 10      1     2         242
## # … with 104 more rows
```


```r
chol_wide <-
  chol_tibble %>%
  pivot_wider(names_from = "day", values_from = "cholest") %>%
  dplyr::rename("day2" = "2", "day4" = "4") %>%
  select(-'14', -"NA") %>%
  na.omit()
chol_wide
```

```
## # A tibble: 28 × 4
##    patient group  day2  day4
##    <chr>   <fct> <int> <int>
##  1 1       1       270   218
##  2 2       1       236   234
##  3 3       1       210   214
##  4 4       1       142   116
##  5 5       1       280   200
##  6 6       1       272   276
##  7 7       1       160   146
##  8 8       1       220   182
##  9 9       1       226   238
## 10 10      1       242   288
## # … with 18 more rows
```


```r
chol_long <-
  chol_wide %>%
  select(-'patient') %>%
  pivot_longer(!group, names_to = "day", values_to = "chol")
chol_long
```

```
## # A tibble: 56 × 3
##    group day    chol
##    <fct> <chr> <int>
##  1 1     day2    270
##  2 1     day4    218
##  3 1     day2    236
##  4 1     day4    234
##  5 1     day2    210
##  6 1     day4    214
##  7 1     day2    142
##  8 1     day4    116
##  9 1     day2    280
## 10 1     day4    200
## # … with 46 more rows
```
…
