10. ANCOVAs and multiple regression
…
http://www.statsci.org/data/general/fev.html.

Does the impact of age on FEV differ among genders? Consider how your
answer to this differs from the previous assignment!

getwd()

## [1] "D:/cuny_biotstats_2022"

fev <- read.csv(file = 'fev.csv') %>%
  as_tibble()

fev

## # A tibble: 654 × 6
##       ID   Age   FEV Height Sex    Smoker
##    <int> <int> <dbl>  <dbl> <chr>  <chr> 
##  1   301     9  1.71   57   Female Non   
##  2   451     8  1.72   67.5 Female Non   
##  3   501     7  1.72   54.5 Female Non   
##  4   642     9  1.56   53   Male   Non   
##  5   901     9  1.90   57   Male   Non   
##  6  1701     8  2.34   61   Female Non   
##  7  1752     6  1.92   58   Female Non   
##  8  1753     6  1.42   56   Female Non   
##  9  1901     8  1.99   58.5 Female Non   
## 10  1951     9  1.94   60   Female Non   
## # … with 644 more rows
…
More information on the data is available @

http://www.statsci.org/data/general/insulgas.html

Is there any relationship between these factors? How would you test
this, and what type of plot would you produce to accompany your
analysis?

insulgas <- read.csv(file = 'insulgas.csv') %>%
  as_tibble()

insulgas

## # A tibble: 44 × 3
##    Insulate  Temp   Gas
##    <chr>    <dbl> <dbl>
##  1 Before    -0.8   7.2
##  2 Before    -0.7   6.9
##  3 Before     0.4   6.4
##  4 Before     2.5   6  
##  5 Before     2.9   5.8
##  6 Before     3.2   5.8
##  7 Before     3.6   5.6
##  8 Before     3.9   4.7
##  9 Before     4.2   5.8
## 10 Before     4.3   5.2
## # … with 34 more rows
…
Data on the height, diameter, and volume of cherry trees was
collected for use in developing an optimal model to predict timber
volume. Data is available @

http://www.statsci.org/data/general/cherry.txt

Use the data to justify an optimal model.

cherry <- read.csv(file = 'cherry.csv') %>%
  as_tibble()

cherry

## # A tibble: 31 × 3
##     Diam Height Volume
##    <dbl>  <int>  <dbl>
##  1   8.3     70   10.3
##  2   8.6     65   10.3
##  3   8.8     63   10.2
##  4  10.5     72   16.4
##  5  10.7     81   18.8
##  6  10.8     83   19.7
##  7  11       66   15.6
##  8  11       75   18.2
##  9  11.1     80   22.6
## 10  11.2     75   19.9
## # … with 21 more rows
…
https://docs.google.com/spreadsheets/d/e/2PACX-1vToN77M80enimQglwpFroooLzDtcQMh4qKbOuhbu-eVmU9buczh7nVV1BdI4T_ma-PfWUnQYmq-60RZ/pub?gid=942311716&single=true&output=csv
)

determine the optimal subset of explanatory variables that should be
used to predict change pulse rate (Change) (focusing on main effects
only, no interactions) and explain your choice of methods. Interpret
your results. Make sure you can explain any changes you needed to make
to the dataset or steps you used in your analysis.

pulse <- read.csv(file = 'pulse_class.csv') %>%
  as_tibble()

pulse

## # A tibble: 46 × 9
##    Height Weight   Age Gender Smokes Alcohol Exercise  Year Change
##     <int>  <dbl> <int>  <int>  <int>   <int>    <int> <int>  <dbl>
##  1    179     58    19      2      2       1        2    93  0.829
##  2    167     62    18      2      2       1        1    93  0.833
##  3    184     74    22      1      2       1        3    93  0.808
##  4    168     60    23      1      2       1        2    93  0.705
##  5    170     75    20      1      2       1        1    93  0.158
##  6    180     70    18      1      2       1        2    93  0.825
##  7    140     50    34      2      2       2        3    93  0.4  
##  8    177     74    18      2      2       2        2    93  0.371
##  9    189     60    19      1      2       1        2    95  1.15 
## 10    178     56    21      2      2       1        2    95  0.744
## # … with 36 more rows

pulse.tbl <-
  pulse %>%
  mutate_at(vars(Gender, Smokes, Alcohol, Exercise), factor)

pulse.tbl

## # A tibble: 46 × 9
##    Height Weight   Age Gender Smokes Alcohol Exercise  Year Change
##     <int>  <dbl> <int> <fct>  <fct>  <fct>   <fct>    <int>  <dbl>
##  1    179     58    19 2      2      1       2           93  0.829
##  2    167     62    18 2      2      1       1           93  0.833
##  3    184     74    22 1      2      1       3           93  0.808
##  4    168     60    23 1      2      1       2           93  0.705
##  5    170     75    20 1      2      1       1           93  0.158
##  6    180     70    18 1      2      1       2           93  0.825
##  7    140     50    34 2      2      2       3           93  0.4  
##  8    177     74    18 2      2      2       2           93  0.371
##  9    189     60    19 1      2      1       2           95  1.15 
## 10    178     56    21 2      2      1       2           95  0.744
## # … with 36 more rows
…
